2021-09-06T19:24:22.268Z | Common Extension Root    | TRACE | query-expfeature <json>{"ABExp.queriedFeature":"vscode.mindaroBinariesVersion-1.0.20210723"}</json>
2021-09-06T19:24:22.268Z | Common Extension Root    | TRACE | Call to ExP returned version 'undefined' <json>{}</json>
2021-09-06T19:24:22.268Z | Common Extension Root    | TRACE | Resolved expected CLI version '1.0.20210708.15' <json>{}</json>
2021-09-06T19:24:22.271Z | Common Extension Root    | TRACE | Event: binaries-utility-version-v1 <json>{}</json>
2021-09-06T19:24:22.272Z | Common Extension Root    | TRACE | Making sure that the CLI is present locally, by downloading it if needed <json>{}</json>
2021-09-06T19:24:22.274Z | Common Extension Root    | TRACE | Making sure that the CLI is present locally, by downloading it if needed <json>{}</json>
2021-09-06T19:24:22.278Z | Common Extension Root    | WARNG | Binaries are not present locally: downloading them <json>{}</json>
2021-09-06T19:24:22.280Z | Common Extension Root    | TRACE | Resolved versionUrl 'https://bridgetokubernetes.blob.core.windows.net/zip/1.0.20210708.15/lks.json' <json>{}</json>
2021-09-06T19:24:24.121Z | Common Extension Root    | TRACE | Event: cli-versions-client-get-download-info-success <json>{"availableVersion":"1.0.20210708.15","expectedVersion":"1.0.20210708.15"}</json>
2021-09-06T19:24:24.121Z | Common Extension Root    | TRACE | Event: cli-version-client-get-download-info-status <json>{"binariesVersionsDownloadTimeInMilliseconds":1842,"binariesVersionsDownloadSucceeded":true}</json>
2021-09-06T19:24:24.121Z | Common Extension Root    | TRACE | Event: binaries-utility-download-start <json>{}</json>
